%YAML 1.1
%TAG !u! tag:unity3d.com,2011:
--- !u!78 &1
TagManager:
  serializedVersion: 2
  tags: []
  layers:
  - Default
  - TransparentFX
  - Ignore Raycast
  - 
  - Water
  - UI
  - Ground
  - Player
  - Danger
  - Portal
  - PickUps
  - 
  - 
  - 
  - 
  - 
  - 
  - 
  - 
  - 
  - 
  - 
  - 
  - 
  - 
  - 
  - 
  - 
  - 
  - 
  - 
  - 
  m_SortingLayers:
  - name: Default
    uniqueID: 0
    locked: 0
  - name: Background
    uniqueID: 3471354311
    locked: 0
  - name: Platforms
    uniqueID: 1700298581
    locked: 0
  - name: PickUps
    uniqueID: 1033531247
    locked: 0
  - name: Enemies
    uniqueID: 576634659
    locked: 0
  - name: Player
    uniqueID: 1960117029
    locked: 0
